{
    "AUTHOR" : "Twentysix",
    "DESCRIPTION" : "Usage: [p]penis <user>\nThis is 100% accurate.",
    "SHORT": "Detects users' penis size with maximum accuracy.",
    "NAME" : "Penis",
    "TAGS" : ["fun"]
}